[
  "stories",
  {
    "NewsSegmentationAnalysis": {
      "IdolHost": "localhost",
      "IdolPort": "9100"
    },
    "StoryODBCOutput": {
      "OdbcDriverManager": "/usr/lib/x86_64-linux-gnu/libodbc.so.1",
      "OdbcConnectionString": "DSN=IDOL_MMAP"
    }
  },
  "bifhi",
  {
    "BIfHIClipCreation": {
      "DestinationURL": "http://localhost:14000/a=createclip&startTime=%record.starttime.iso8601%&duration=%record.duration%us&stream={{streamId}}&outputformat=mp4&path=mp4/{{streamId}}/%record.starttime.year%/%record.starttime.month%/%record.starttime.day%/%record.starttime.hour%%record.starttime.minute%%record.starttime.second%_%segment.sequence%.mp4",
      "Input": "FilteredNoTopicStory.Output,RollingBufferEncode.Proxy,SpeechToTextAnalysis.Result"
    },
    "CFSBIfHIOutput": {
      "CfsHost": "localhost",
      "CfsPort": "7000",
      "Labels": "source:BR Sued,mp4UrlBase:http://localhost:8085/mp4,dredbname:News,sourceType:channel"
    }
  }
]
