[
  "ingest",
  "rollingbuffer",
  "keyframes",
  {
    "KeyframeEncode": {
      "ImageSize": "0x72"
    },
    "KeyframeODBCOutput": {
      "OdbcDriverManager": "/usr/lib/x86_64-linux-gnu/libodbc.so.1",
      "OdbcConnectionString": "DSN=IDOL_MMAP"
    }
  }
]