[
  "speakers",
  {
    "SpeechToTextAnalysis": {
      "languagePack": "ENUK",
      "speedBias": "Live",
      "filterMusic": "true"
    },
    "SpeakerIdODBCOutput": {
      "OdbcDriverManager": "/usr/lib/x86_64-linux-gnu/libodbc.so.1",
      "OdbcConnectionString": "DSN=IDOL_MMAP"
    }
  }
]
